// Vitest Snapshot v1, https://vitest.dev/guide/snapshot.html

exports[`TheLocaleSwitch > matches snapshot 1`] = `
<div>
  <div
    class="locale-changer"
    data-v-6e06215b=""
  >
    
    <label
      for="UUID({$t(controls.changeLanguage)}/0/de)"
    >
      {$t(controls.changeLanguage)}
    </label>
    <select
      id="UUID({$t(controls.changeLanguage)}/0/de)"
    >
      
      <option
        value="de"
      >
        Deutsch
      </option>
      <option
        value="en"
      >
        English
      </option>
      
    </select>
    
  </div>
</div>
`;
