// Vitest Snapshot v1, https://vitest.dev/guide/snapshot.html

exports[`InputBoolean > matches snapshot 1`] = `
<div>
  <div
    class="v-col less-padding"
    data-v-6c3b3ff8=""
  >
    <div
      class="v-input v-input--horizontal v-input--center-affix v-input--density-default v-theme--light v-locale--is-ltr v-input--dirty v-checkbox"
      data-v-6c3b3ff8=""
    >
      <!---->
      <div
        class="v-input__control"
      >
        
        <div
          class="v-selection-control v-selection-control--density-default v-checkbox-btn"
        >
          <div
            class="v-selection-control__wrapper"
          >
            <!---->
            <div
              class="v-selection-control__input"
            >
              
              <i
                aria-hidden="true"
                class="material-icons v-icon notranslate v-theme--light v-icon--size-default"
              >
                check_box_outline_blank
              </i>
              <input
                aria-describedby="checkbox-0-messages"
                aria-disabled="false"
                aria-label="LABEL"
                id="checkbox-0"
                type="checkbox"
                value="true"
              />
              
            </div>
          </div>
          <label
            class="v-label v-label--clickable"
            for="checkbox-0"
          >
            <!---->
            
            LABEL
            
          </label>
        </div>
        
      </div>
      <div
        class="v-input__append"
      >
        <!---->
        
        <tooltip-icon-stub
          data-v-6c3b3ff8=""
          description=""
          icon="info"
        />
        
      </div>
      <div
        class="v-input__details"
      >
        <transition-group-stub
          appear="false"
          aria-live="polite"
          class="v-messages"
          css="true"
          id="checkbox-0-messages"
          name="slide-y-transition"
          persisted="false"
          role="alert"
          tag="div"
        >
          <!---->
        </transition-group-stub>
        <!---->
      </div>
    </div>
  </div>
</div>
`;
