{
	"target": "map",
	"epsg": "EPSG:25832",
	"namedProjections": [
		[ "EPSG:31467", "+title=Bessel/Gauß-Krüger 3 +proj=tmerc +lat_0=0 +lon_0=9 +k=1 +x_0=3500000 +y_0=0 +ellps=bessel +datum=potsdam +units=m +no_defs" ],
		[ "EPSG:25832", "+title=ETRS89/UTM 32N +proj=utm +zone=32 +ellps=GRS80 +towgs84=0,0,0,0,0,0,0 +units=m +no_defs" ],
		[ "EPSG:8395", "+title=ETRS89/Gauß-Krüger 3 +proj=tmerc +lat_0=0 +lon_0=9 +k=1 +x_0=3500000 +y_0=0 +ellps=GRS80 +datum=GRS80 +units=m +no_defs" ],
		[ "EPSG:4326", "+title=WGS 84 (long/lat) +proj=longlat +ellps=WGS84 +datum=WGS84 +no_defs" ]
	],
	"extent": [ 281890, 5232212, 920494, 6113004 ],
	"options": [
		{ "resolution": 264.583190458, "scale": 500000, "zoomLevel": 0 },
		{ "resolution": 132.291595229, "scale": 500000, "zoomLevel": 1 },
		{ "resolution": 66.14579761460263, "scale": 250000, "zoomLevel": 2 },
		{ "resolution": 26.458319045841044, "scale": 100000, "zoomLevel": 3 },
		{ "resolution": 15.874991427504629, "scale": 60000, "zoomLevel": 4 },
		{ "resolution": 10.583327618336419, "scale": 40000, "zoomLevel": 5 },
		{ "resolution": 5.2916638091682096, "scale": 20000, "zoomLevel": 6 },
		{ "resolution": 2.6458319045841048, "scale": 10000, "zoomLevel": 7 },
		{ "resolution": 1.3229159522920524, "scale": 5000, "zoomLevel": 8 },
		{ "resolution": 0.6614579761460262, "scale": 2500, "zoomLevel": 9 },
		{ "resolution": 0.2645831904584105, "scale": 1000, "zoomLevel": 10 },
		{ "resolution": 0.13229159522920521, "scale": 500, "zoomLevel": 11 }
	],
	"startResolution": 132.291595229,
	"startCenter": [ 565874, 5934140 ],
	"units": "m",
	"wfsImgPath": "https://geodienste.hamburg.de/lgv-config/img/",
	"layerConf": "",
	"layers": [
		{
			"id": "23420"
		}
	]
}
