@startuml

package "Frontend" {
    [Vue-Client] as client
    database "indexedDB"
}

package "Backend" {
    interface clean
    interface configs
    interface masterportalBundle
    interface app
    [Express-Server] as server
    database "SQLite"
}

cloud {
    interface "Bitbucket API" as bitbucketAPI
    [Bitbucket.org] as bitbucket
}

note top of bitbucketAPI
    Schnittstelle zum Abruf von
    Konfigurationsdateien,
    Markdowns und Bundles
end note

note bottom of app
    Bereitstellung der Anwendung
    und deren Konfiguration 
end note

note bottom of configs
    Abrufen (get) und Hinzufügen (post)
    von Masterportal-Konfigurationen    
end note

note top of clean
    Löschen von Konfigurationen
    (nach ID oder Alter)
end note

note bottom of masterportalBundle
    Proxy für den Bezug des Masterportal
    Bundles, da dies wegen CORS nicht direkt
    über die API geladen werden kann. 
end note

note top of SQLite 
    Speicher für Konfigurationen
end note

note top of indexedDB
    Speicher für Informationen
    über Services / Layer
end note



bitbucketAPI -- bitbucket
server --> bitbucketAPI
client --> bitbucketAPI

server - SQLite
server -- configs
server -- masterportalBundle
server -- app
server -- clean

client - indexedDB
client --> configs
client --> masterportalBundle
client --> app


@enduml
