@startuml

cloud " " as someWhere{
    file layerConf
    file styleConf
}

note bottom of layerConf 
   Definition angebotener Layern
   (analog zu services.json)
end note

note top of styleConf
    Definition angebotener Styles für
    WFS(analog zu styles.json)
end note

folder app {
    file "config.admintool.json" as mpAdminConfigJson
    file "config.masterportalApi.json" as mpAdminMapConfigJson
}

note top of mpAdminConfigJson 
    Zentrale Konfigurationsdatei. Definiert
    u.a. Pfade zu "layerConf" und "styleConf".
end note

note top of mpAdminMapConfigJson
    Konfiguration für eingebundene
    Karten (Masterportal API).
end note

cloud Bitbucket {
    file "doc/config.json.de.md" as mpConfigJsonDeMd
    file "Masterportal Versionen (tags)" as tags
    file "portal/basic/config.json" as mpConfigJson
    file "doc/config.json.md" as mpConfigJsonMd
}

note bottom of mpConfigJsonDeMd
    Deutschsprachige Markdown-Datei
    (für Mehrsprachigkeit)
end note

note top of tags
    Liefert Informationen über vefügbare
    Versionen des Masterportals.
end note

note top of mpConfigJson
    Werte aus der Masterportal Konfigurationsdatei
    werden als Standartwerte verwendet.
end note

note bottom of mpConfigJsonMd
    Struktur des Wizards leitet
    sich aus der Markdown-Datei ab. 
    Beschreibungen der einzelnen
    Konfigurations-Möglichkeiten 
    werden dieser Datei entnommen.
end note

app -[hidden]- Bitbucket
someWhere -[hidden]- Bitbucket
app --> someWhere

@enduml
