// Vitest Snapshot v1, https://vitest.dev/guide/snapshot.html

exports[`404 > matches snapshot 1`] = `
<div>
  <div
    data-v-91101765=""
  >
    <p
      data-v-91101765=""
    >
      {$t(errors.notFound.text)}
    </p>
    <p
      data-v-91101765=""
    >
      <button
        class="backToMain"
        data-v-91101765=""
      >
        
        {$t(errors.notFound.action)}
        
      </button>
    </p>
  </div>
</div>
`;
